fsm-practice/traffic_control/data/dumpfile.vcd
$date
	Wed Jul 24 01:10:04 2019
$end
$version
	Icarus Verilog
$end
$timescale
	1ns
$end
$scope module tb $end
$var wire 2 ! Lb [1:0] $end
$var wire 2 " La [1:0] $end
$var reg 1 # Ta $end
$var reg 1 $ Tb $end
$var reg 1 % clk $end
$var reg 1 & reset $end
$var integer 32 ' i [31:0] $end
$scope module t1 $end
$var wire 1 # Ta $end
$var wire 1 $ Tb $end
$var wire 1 % clk $end
$var wire 1 & reset $end
$var reg 2 ( La [1:0] $end
$var reg 2 ) Lb [1:0] $end
$var reg 2 * currentState [1:0] $end
$var reg 2 + nextState [1:0] $end
$upscope $end
$upscope $end
$enddefinitions $end
#0
$dumpvars
b0 +
bx *
b0 )
b10 (
b0 '
1&
0%
0$
0#
b10 "
b0 !
$end
#5
b0 *
1%
#10
b1 '
0%
#12
b1 +
1$
#15
b1 "
b1 (
b10 +
b1 *
1%
#20
b10 '
0%
#22
0$
#25
b10 !
b10 )
b0 "
b0 (
b10 *
1%
#30
b11 '
0%
#35
1%
#40
b100 '
0%
#42
b11 +
1#
#45
b1 !
b1 )
b0 +
b11 *
1%
#50
b101 '
0%
#55
b0 !
b0 )
b10 "
b10 (
b0 *
1%
#57
0#
#60
b110 '
0%
#62
1#
#65
1%
#70
b111 '
0%
#75
1%
#80
b1000 '
0%
#85
1%
#90
b1001 '
0%
#92
b1 +
1$
#95
b1 "
b1 (
b10 +
b1 *
1%
#100
b1010 '
0%
#105
b10 !
b10 )
b0 "
b0 (
b11 +
b10 *
1%
#110
b1011 '
0%
#115
b1 !
b1 )
b0 +
b11 *
1%
#117
0&
#120
b1100 '
0%
#122
1&
#125
b0 !
b0 )
b10 "
b10 (
b1 +
b0 *
1%
#130
b1101 '
0%
#135
b1 "
b1 (
b10 +
b1 *
1%
#140
b1110 '
0%
#145
b10 !
b10 )
b0 "
b0 (
b11 +
b10 *
1%
#150
b1111 '
0%
#155
b1 !
b1 )
b0 +
b11 *
1%
#160
b10000 '
0%
#165
b0 !
b0 )
b10 "
b10 (
b1 +
b0 *
1%
#170
b10001 '
0%
#175
b1 "
b1 (
b10 +
b1 *
1%
#180
b10010 '
0%
#185
b10 !
b10 )
b0 "
b0 (
b11 +
b10 *
1%
#190
b10011 '
0%
#195
b1 !
b1 )
b0 +
b11 *
1%
#200
b10100 '
0%
#205
b0 !
b0 )
b10 "
b10 (
b1 +
b0 *
1%
#210
b10101 '
0%
#215
b1 "
b1 (
b10 +
b1 *
1%
#220
b10110 '
0%
#225
b10 !
b10 )
b0 "
b0 (
b11 +
b10 *
1%
#230
b10111 '
0%
#235
b1 !
b1 )
b0 +
b11 *
1%
#240
b11000 '
0%
#245
b0 !
b0 )
b10 "
b10 (
b1 +
b0 *
1%
#250
b11001 '
0%
#255
b1 "
b1 (
b10 +
b1 *
1%
#260
b11010 '
0%
#265
b10 !
b10 )
b0 "
b0 (
b11 +
b10 *
1%
#270
b11011 '
0%
#275
b1 !
b1 )
b0 +
b11 *
1%
#280
b11100 '
0%
#285
b0 !
b0 )
b10 "
b10 (
b1 +
b0 *
1%
#290
b11101 '
0%
#295
b1 "
b1 (
b10 +
b1 *
1%
#300
b11110 '
0%
#305
b10 !
b10 )
b0 "
b0 (
b11 +
b10 *
1%
#310
b11111 '
0%
#315
b1 !
b1 )
b0 +
b11 *
1%
#320
b100000 '
0%
#325
b0 !
b0 )
b10 "
b10 (
b1 +
b0 *
1%
#330
b100001 '
0%
#335
b1 "
b1 (
b10 +
b1 *
1%
#340
b100010 '
0%
#345
b10 !
b10 )
b0 "
b0 (
b11 +
b10 *
1%
#350
b100011 '
0%
#355
b1 !
b1 )
b0 +
b11 *
1%
#360
b100100 '
0%
#365
b0 !
b0 )
b10 "
b10 (
b1 +
b0 *
1%
#370
b100101 '
0%
#375
b1 "
b1 (
b10 +
b1 *
1%
#380
b100110 '
0%
#385
b10 !
b10 )
b0 "
b0 (
b11 +
b10 *
1%
#390
b100111 '
0%
#395
b1 !
b1 )
b0 +
b11 *
1%
#400
b101000 '
0%
#405
b0 !
b0 )
b10 "
b10 (
b1 +
b0 *
1%
#410
b101001 '
0%
#415
b1 "
b1 (
b10 +
b1 *
1%
#420
b101010 '
0%
#425
b10 !
b10 )
b0 "
b0 (
b11 +
b10 *
1%
#430
b101011 '
0%
#435
b1 !
b1 )
b0 +
b11 *
1%
#440
b101100 '
0%
#445
b0 !
b0 )
b10 "
b10 (
b1 +
b0 *
1%
#450
b101101 '
0%
#455
b1 "
b1 (
b10 +
b1 *
1%
#460
b101110 '
0%
#465
b10 !
b10 )
b0 "
b0 (
b11 +
b10 *
1%
#470
b101111 '
0%
#475
b1 !
b1 )
b0 +
b11 *
1%
#480
b110000 '
0%
#485
b0 !
b0 )
b10 "
b10 (
b1 +
b0 *
1%
#490
b110001 '
0%
#495
b1 "
b1 (
b10 +
b1 *
1%
#500
b110010 '
0%
#505
b10 !
b10 )
b0 "
b0 (
b11 +
b10 *
1%
#510
b110011 '
0%
#515
b1 !
b1 )
b0 +
b11 *
1%
#520
b110100 '
0%
#525
b0 !
b0 )
b10 "
b10 (
b1 +
b0 *
1%
#530
b110101 '
0%
#535
b1 "
b1 (
b10 +
b1 *
1%
#540
b110110 '
0%
#545
b10 !
b10 )
b0 "
b0 (
b11 +
b10 *
1%
#550
b110111 '
0%
#555
b1 !
b1 )
b0 +
b11 *
1%
#560
b111000 '
0%
#565
b0 !
b0 )
b10 "
b10 (
b1 +
b0 *
1%
#570
b111001 '
0%
#575
b1 "
b1 (
b10 +
b1 *
1%
#580
b111010 '
0%
#585
b10 !
b10 )
b0 "
b0 (
b11 +
b10 *
1%
#590
b111011 '
0%
#595
b1 !
b1 )
b0 +
b11 *
1%
#600
b111100 '
0%
#605
b0 !
b0 )
b10 "
b10 (
b1 +
b0 *
1%
#610
b111101 '
0%
#615
b1 "
b1 (
b10 +
b1 *
1%
#620
b111110 '
0%
#625
b10 !
b10 )
b0 "
b0 (
b11 +
b10 *
1%
#630
b111111 '
0%
#635
b1 !
b1 )
b0 +
b11 *
1%
#640
b1000000 '
0%
#645
b0 !
b0 )
b10 "
b10 (
b1 +
b0 *
1%
#650
b1000001 '
0%
#655
b1 "
b1 (
b10 +
b1 *
1%
#660
b1000010 '
0%
#665
b10 !
b10 )
b0 "
b0 (
b11 +
b10 *
1%
#670
b1000011 '
0%
#675
b1 !
b1 )
b0 +
b11 *
1%
#680
b1000100 '
0%
#685
b0 !
b0 )
b10 "
b10 (
b1 +
b0 *
1%
#690
b1000101 '
0%
#695
b1 "
b1 (
b10 +
b1 *
1%
#700
b1000110 '
0%
#705
b10 !
b10 )
b0 "
b0 (
b11 +
b10 *
1%
#710
b1000111 '
0%
#715
b1 !
b1 )
b0 +
b11 *
1%
#720
b1001000 '
0%
#725
b0 !
b0 )
b10 "
b10 (
b1 +
b0 *
1%
#730
b1001001 '
0%
#735
b1 "
b1 (
b10 +
b1 *
1%
#740
b1001010 '
0%
#745
b10 !
b10 )
b0 "
b0 (
b11 +
b10 *
1%
#750
b1001011 '
0%
#755
b1 !
b1 )
b0 +
b11 *
1%
#760
b1001100 '
0%
#765
b0 !
b0 )
b10 "
b10 (
b1 +
b0 *
1%
#770
b1001101 '
0%
#775
b1 "
b1 (
b10 +
b1 *
1%
#780
b1001110 '
0%
#785
b10 !
b10 )
b0 "
b0 (
b11 +
b10 *
1%
#790
b1001111 '
0%
#795
b1 !
b1 )
b0 +
b11 *
1%
#800
b1010000 '
0%
#805
b0 !
b0 )
b10 "
b10 (
b1 +
b0 *
1%
#810
b1010001 '
0%
#815
b1 "
b1 (
b10 +
b1 *
1%
#820
b1010010 '
0%
#825
b10 !
b10 )
b0 "
b0 (
b11 +
b10 *
1%
#830
b1010011 '
0%
#835
b1 !
b1 )
b0 +
b11 *
1%
#840
b1010100 '
0%
#845
b0 !
b0 )
b10 "
b10 (
b1 +
b0 *
1%
#850
b1010101 '
0%
#855
b1 "
b1 (
b10 +
b1 *
1%
#860
b1010110 '
0%
#865
b10 !
b10 )
b0 "
b0 (
b11 +
b10 *
1%
#870
b1010111 '
0%
#875
b1 !
b1 )
b0 +
b11 *
1%
#880
b1011000 '
0%
#885
b0 !
b0 )
b10 "
b10 (
b1 +
b0 *
1%
#890
b1011001 '
0%
#895
b1 "
b1 (
b10 +
b1 *
1%
#900
b1011010 '
0%
#905
b10 !
b10 )
b0 "
b0 (
b11 +
b10 *
1%
#910
b1011011 '
0%
#915
b1 !
b1 )
b0 +
b11 *
1%
#920
b1011100 '
0%
#925
b0 !
b0 )
b10 "
b10 (
b1 +
b0 *
1%
#930
b1011101 '
0%
#935
b1 "
b1 (
b10 +
b1 *
1%
#940
b1011110 '
0%
#945
b10 !
b10 )
b0 "
b0 (
b11 +
b10 *
1%
#950
b1011111 '
0%
#955
b1 !
b1 )
b0 +
b11 *
1%
#960
b1100000 '
0%
#965
b0 !
b0 )
b10 "
b10 (
b1 +
b0 *
1%
#970
b1100001 '
0%
#975
b1 "
b1 (
b10 +
b1 *
1%
#980
b1100010 '
0%
#985
b10 !
b10 )
b0 "
b0 (
b11 +
b10 *
1%
#990
b1100011 '
0%
#995
b1 !
b1 )
b0 +
b11 *
1%
#1000
b1100100 '
0%
#1005
b0 !
b0 )
b10 "
b10 (
b1 +
b0 *
1%
#1010
b1100101 '
0%
#1015
b1 "
b1 (
b10 +
b1 *
1%
#1020
b1100110 '
0%
#1025
b10 !
b10 )
b0 "
b0 (
b11 +
b10 *
1%
#1030
b1100111 '
0%
#1035
b1 !
b1 )
b0 +
b11 *
1%
#1040
b1101000 '
0%
#1045
b0 !
b0 )
b10 "
b10 (
b1 +
b0 *
1%
#1050
b1101001 '
0%
#1055
b1 "
b1 (
b10 +
b1 *
1%
#1060
b1101010 '
0%
#1065
b10 !
b10 )
b0 "
b0 (
b11 +
b10 *
1%
#1070
b1101011 '
0%
#1075
b1 !
b1 )
b0 +
b11 *
1%
#1080
b1101100 '
0%
#1085
b0 !
b0 )
b10 "
b10 (
b1 +
b0 *
1%
#1090
b1101101 '
0%
#1095
b1 "
b1 (
b10 +
b1 *
1%
#1100
b1101110 '
0%
#1105
b10 !
b10 )
b0 "
b0 (
b11 +
b10 *
1%
#1110
b1101111 '
0%
#1115
b1 !
b1 )
b0 +
b11 *
1%
#1120
b1110000 '
0%
#1125
b0 !
b0 )
b10 "
b10 (
b1 +
b0 *
1%
#1130
b1110001 '
0%
#1135
b1 "
b1 (
b10 +
b1 *
1%
#1140
b1110010 '
0%
#1145
b10 !
b10 )
b0 "
b0 (
b11 +
b10 *
1%
#1150
b1110011 '
0%
#1155
b1 !
b1 )
b0 +
b11 *
1%
#1160
b1110100 '
0%
#1165
b0 !
b0 )
b10 "
b10 (
b1 +
b0 *
1%
#1170
b1110101 '
0%
#1175
b1 "
b1 (
b10 +
b1 *
1%
#1180
b1110110 '
0%
#1185
b10 !
b10 )
b0 "
b0 (
b11 +
b10 *
1%
#1190
b1110111 '
0%
#1195
b1 !
b1 )
b0 +
b11 *
1%
#1200
b1111000 '
0%
#1205
b0 !
b0 )
b10 "
b10 (
b1 +
b0 *
1%
#1210
b1111001 '
0%
#1215
b1 "
b1 (
b10 +
b1 *
1%
#1220
b1111010 '
0%
#1225
b10 !
b10 )
b0 "
b0 (
b11 +
b10 *
1%
#1230
b1111011 '
0%
#1235
b1 !
b1 )
b0 +
b11 *
1%
#1240
b1111100 '
0%
#1245
b0 !
b0 )
b10 "
b10 (
b1 +
b0 *
1%
#1250
b1111101 '
0%
#1255
b1 "
b1 (
b10 +
b1 *
1%
#1260
b1111110 '
0%
#1265
b10 !
b10 )
b0 "
b0 (
b11 +
b10 *
1%
#1270
b1111111 '
0%
#1275
b1 !
b1 )
b0 +
b11 *
1%
#1280
b10000000 '
0%
#1285
b0 !
b0 )
b10 "
b10 (
b1 +
b0 *
1%
#1290
b10000001 '
0%
#1295
b1 "
b1 (
b10 +
b1 *
1%
#1300
b10000010 '
0%
#1305
b10 !
b10 )
b0 "
b0 (
b11 +
b10 *
1%
#1310
b10000011 '
0%
#1315
b1 !
b1 )
b0 +
b11 *
1%
#1320
b10000100 '
0%
#1325
b0 !
b0 )
b10 "
b10 (
b1 +
b0 *
1%
#1330
b10000101 '
0%
#1335
b1 "
b1 (
b10 +
b1 *
1%
#1340
b10000110 '
0%
#1345
b10 !
b10 )
b0 "
b0 (
b11 +
b10 *
1%
#1350
b10000111 '
0%
#1355
b1 !
b1 )
b0 +
b11 *
1%
#1360
b10001000 '
0%
#1365
b0 !
b0 )
b10 "
b10 (
b1 +
b0 *
1%
#1370
b10001001 '
0%
#1375
b1 "
b1 (
b10 +
b1 *
1%
#1380
b10001010 '
0%
#1385
b10 !
b10 )
b0 "
b0 (
b11 +
b10 *
1%
#1390
b10001011 '
0%
#1395
b1 !
b1 )
b0 +
b11 *
1%
#1400
b10001100 '
0%
#1405
b0 !
b0 )
b10 "
b10 (
b1 +
b0 *
1%
#1410
b10001101 '
0%
#1415
b1 "
b1 (
b10 +
b1 *
1%
#1420
b10001110 '
0%
#1425
b10 !
b10 )
b0 "
b0 (
b11 +
b10 *
1%
#1430
b10001111 '
0%
#1435
b1 !
b1 )
b0 +
b11 *
1%
#1440
b10010000 '
0%
#1445
b0 !
b0 )
b10 "
b10 (
b1 +
b0 *
1%
#1450
b10010001 '
0%
#1455
b1 "
b1 (
b10 +
b1 *
1%
#1460
b10010010 '
0%
#1465
b10 !
b10 )
b0 "
b0 (
b11 +
b10 *
1%
#1470
b10010011 '
0%
#1475
b1 !
b1 )
b0 +
b11 *
1%
#1480
b10010100 '
0%
#1485
b0 !
b0 )
b10 "
b10 (
b1 +
b0 *
1%
#1490
b10010101 '
0%
#1495
b1 "
b1 (
b10 +
b1 *
1%
#1500
b10010110 '
0%
#1505
b10 !
b10 )
b0 "
b0 (
b11 +
b10 *
1%
#1510
b10010111 '
0%
#1515
b1 !
b1 )
b0 +
b11 *
1%
#1520
b10011000 '
0%
#1525
b0 !
b0 )
b10 "
b10 (
b1 +
b0 *
1%
#1530
b10011001 '
0%
#1535
b1 "
b1 (
b10 +
b1 *
1%
#1540
b10011010 '
0%
#1545
b10 !
b10 )
b0 "
b0 (
b11 +
b10 *
1%
#1550
b10011011 '
0%
#1555
b1 !
b1 )
b0 +
b11 *
1%
#1560
b10011100 '
0%
#1565
b0 !
b0 )
b10 "
b10 (
b1 +
b0 *
1%
#1570
b10011101 '
0%
#1575
b1 "
b1 (
b10 +
b1 *
1%
#1580
b10011110 '
0%
#1585
b10 !
b10 )
b0 "
b0 (
b11 +
b10 *
1%
#1590
b10011111 '
0%
#1595
b1 !
b1 )
b0 +
b11 *
1%
#1600
b10100000 '
0%
#1605
b0 !
b0 )
b10 "
b10 (
b1 +
b0 *
1%
#1610
b10100001 '
0%
#1615
b1 "
b1 (
b10 +
b1 *
1%
#1620
b10100010 '
0%
#1625
b10 !
b10 )
b0 "
b0 (
b11 +
b10 *
1%
#1630
b10100011 '
0%
#1635
b1 !
b1 )
b0 +
b11 *
1%
#1640
b10100100 '
0%
#1645
b0 !
b0 )
b10 "
b10 (
b1 +
b0 *
1%
#1650
b10100101 '
0%
#1655
b1 "
b1 (
b10 +
b1 *
1%
#1660
b10100110 '
0%
#1665
b10 !
b10 )
b0 "
b0 (
b11 +
b10 *
1%
#1670
b10100111 '
0%
#1675
b1 !
b1 )
b0 +
b11 *
1%
#1680
b10101000 '
0%
#1685
b0 !
b0 )
b10 "
b10 (
b1 +
b0 *
1%
#1690
b10101001 '
0%
#1695
b1 "
b1 (
b10 +
b1 *
1%
#1700
b10101010 '
0%
#1705
b10 !
b10 )
b0 "
b0 (
b11 +
b10 *
1%
#1710
b10101011 '
0%
#1715
b1 !
b1 )
b0 +
b11 *
1%
#1720
b10101100 '
0%
#1725
b0 !
b0 )
b10 "
b10 (
b1 +
b0 *
1%
#1730
b10101101 '
0%
#1735
b1 "
b1 (
b10 +
b1 *
1%
#1740
b10101110 '
0%
#1745
b10 !
b10 )
b0 "
b0 (
b11 +
b10 *
1%
#1750
b10101111 '
0%
#1755
b1 !
b1 )
b0 +
b11 *
1%
#1760
b10110000 '
0%
#1765
b0 !
b0 )
b10 "
b10 (
b1 +
b0 *
1%
#1770
b10110001 '
0%
#1775
b1 "
b1 (
b10 +
b1 *
1%
#1780
b10110010 '
0%
#1785
b10 !
b10 )
b0 "
b0 (
b11 +
b10 *
1%
#1790
b10110011 '
0%
#1795
b1 !
b1 )
b0 +
b11 *
1%
#1800
b10110100 '
0%
#1805
b0 !
b0 )
b10 "
b10 (
b1 +
b0 *
1%
#1810
b10110101 '
0%
#1815
b1 "
b1 (
b10 +
b1 *
1%
#1820
b10110110 '
0%
#1825
b10 !
b10 )
b0 "
b0 (
b11 +
b10 *
1%
#1830
b10110111 '
0%
#1835
b1 !
b1 )
b0 +
b11 *
1%
#1840
b10111000 '
0%
#1845
b0 !
b0 )
b10 "
b10 (
b1 +
b0 *
1%
#1850
b10111001 '
0%
#1855
b1 "
b1 (
b10 +
b1 *
1%
#1860
b10111010 '
0%
#1865
b10 !
b10 )
b0 "
b0 (
b11 +
b10 *
1%
#1870
b10111011 '
0%
#1875
b1 !
b1 )
b0 +
b11 *
1%
#1880
b10111100 '
0%
#1885
b0 !
b0 )
b10 "
b10 (
b1 +
b0 *
1%
#1890
b10111101 '
0%
#1895
b1 "
b1 (
b10 +
b1 *
1%
#1900
b10111110 '
0%
#1905
b10 !
b10 )
b0 "
b0 (
b11 +
b10 *
1%
#1910
b10111111 '
0%
#1915
b1 !
b1 )
b0 +
b11 *
1%
#1920
b11000000 '
0%
#1925
b0 !
b0 )
b10 "
b10 (
b1 +
b0 *
1%
#1930
b11000001 '
0%
#1935
b1 "
b1 (
b10 +
b1 *
1%
#1940
b11000010 '
0%
#1945
b10 !
b10 )
b0 "
b0 (
b11 +
b10 *
1%
#1950
b11000011 '
0%
#1955
b1 !
b1 )
b0 +
b11 *
1%
#1960
b11000100 '
0%
#1965
b0 !
b0 )
b10 "
b10 (
b1 +
b0 *
1%
#1970
b11000101 '
0%
#1975
b1 "
b1 (
b10 +
b1 *
1%
#1980
b11000110 '
0%
#1985
b10 !
b10 )
b0 "
b0 (
b11 +
b10 *
1%
#1990
b11000111 '
0%
#1995
b1 !
b1 )
b0 +
b11 *
1%
#2000
b11001000 '
0%
#2005
b0 !
b0 )
b10 "
b10 (
b1 +
b0 *
1%
#2010
b11001001 '
0%
#2015
b1 "
b1 (
b10 +
b1 *
1%
#2020
b11001010 '
0%
#2025
b10 !
b10 )
b0 "
b0 (
b11 +
b10 *
1%
#2030
b11001011 '
0%
#2035
b1 !
b1 )
b0 +
b11 *
1%
#2040
b11001100 '
0%
#2045
b0 !
b0 )
b10 "
b10 (
b1 +
b0 *
1%
#2050
b11001101 '
0%
#2055
b1 "
b1 (
b10 +
b1 *
1%
#2060
b11001110 '
0%
#2065
b10 !
b10 )
b0 "
b0 (
b11 +
b10 *
1%
#2070
b11001111 '
0%
#2075
b1 !
b1 )
b0 +
b11 *
1%
#2080
b11010000 '
0%
#2085
b0 !
b0 )
b10 "
b10 (
b1 +
b0 *
1%
#2090
b11010001 '
0%
#2095
b1 "
b1 (
b10 +
b1 *
1%
#2100
b11010010 '
0%
#2105
b10 !
b10 )
b0 "
b0 (
b11 +
b10 *
1%
#2110
b11010011 '
0%
#2115
b1 !
b1 )
b0 +
b11 *
1%
#2120
b11010100 '
0%
#2125
b0 !
b0 )
b10 "
b10 (
b1 +
b0 *
1%
#2130
b11010101 '
0%
#2135
b1 "
b1 (
b10 +
b1 *
1%
#2140
b11010110 '
0%
#2145
b10 !
b10 )
b0 "
b0 (
b11 +
b10 *
1%
#2150
b11010111 '
0%
#2155
b1 !
b1 )
b0 +
b11 *
1%
#2160
b11011000 '
0%
#2165
b0 !
b0 )
b10 "
b10 (
b1 +
b0 *
1%
#2170
b11011001 '
0%
#2175
b1 "
b1 (
b10 +
b1 *
1%
#2180
b11011010 '
0%
#2185
b10 !
b10 )
b0 "
b0 (
b11 +
b10 *
1%
#2190
b11011011 '
0%
#2195
b1 !
b1 )
b0 +
b11 *
1%
#2200
b11011100 '
0%
#2205
b0 !
b0 )
b10 "
b10 (
b1 +
b0 *
1%
#2210
b11011101 '
0%
#2215
b1 "
b1 (
b10 +
b1 *
1%
#2220
b11011110 '
0%
#2225
b10 !
b10 )
b0 "
b0 (
b11 +
b10 *
1%
#2230
b11011111 '
0%
#2235
b1 !
b1 )
b0 +
b11 *
1%
#2240
b11100000 '
0%
#2245
b0 !
b0 )
b10 "
b10 (
b1 +
b0 *
1%
#2250
b11100001 '
0%
#2255
b1 "
b1 (
b10 +
b1 *
1%
#2260
b11100010 '
0%
#2265
b10 !
b10 )
b0 "
b0 (
b11 +
b10 *
1%
#2270
b11100011 '
0%
#2275
b1 !
b1 )
b0 +
b11 *
1%
#2280
b11100100 '
0%
#2285
b0 !
b0 )
b10 "
b10 (
b1 +
b0 *
1%
#2290
b11100101 '
0%
#2295
b1 "
b1 (
b10 +
b1 *
1%
#2300
b11100110 '
0%
#2305
b10 !
b10 )
b0 "
b0 (
b11 +
b10 *
1%
#2310
b11100111 '
0%
#2315
b1 !
b1 )
b0 +
b11 *
1%
#2320
b11101000 '
0%
#2325
b0 !
b0 )
b10 "
b10 (
b1 +
b0 *
1%
#2330
b11101001 '
0%
#2335
b1 "
b1 (
b10 +
b1 *
1%
#2340
b11101010 '
0%
#2345
b10 !
b10 )
b0 "
b0 (
b11 +
b10 *
1%
#2350
b11101011 '
0%
#2355
b1 !
b1 )
b0 +
b11 *
1%
#2360
b11101100 '
0%
#2365
b0 !
b0 )
b10 "
b10 (
b1 +
b0 *
1%
#2370
b11101101 '
0%
#2375
b1 "
b1 (
b10 +
b1 *
1%
#2380
b11101110 '
0%
#2385
b10 !
b10 )
b0 "
b0 (
b11 +
b10 *
1%
#2390
b11101111 '
0%
#2395
b1 !
b1 )
b0 +
b11 *
1%
#2400
b11110000 '
0%
#2405
b0 !
b0 )
b10 "
b10 (
b1 +
b0 *
1%
#2410
b11110001 '
0%
#2415
b1 "
b1 (
b10 +
b1 *
1%
#2420
b11110010 '
0%
#2425
b10 !
b10 )
b0 "
b0 (
b11 +
b10 *
1%
#2430
b11110011 '
0%
#2435
b1 !
b1 )
b0 +
b11 *
1%
#2440
b11110100 '
0%
#2445
b0 !
b0 )
b10 "
b10 (
b1 +
b0 *
1%
#2450
b11110101 '
0%
#2455
b1 "
b1 (
b10 +
b1 *
1%
#2460
b11110110 '
0%
#2465
b10 !
b10 )
b0 "
b0 (
b11 +
b10 *
1%
#2470
b11110111 '
0%
#2475
b1 !
b1 )
b0 +
b11 *
1%
#2480
b11111000 '
0%
#2485
b0 !
b0 )
b10 "
b10 (
b1 +
b0 *
1%
#2490
b11111001 '
0%
#2495
b1 "
b1 (
b10 +
b1 *
1%
#2500
b11111010 '
0%
#2505
b10 !
b10 )
b0 "
b0 (
b11 +
b10 *
1%
#2510
b11111011 '
0%
#2515
b1 !
b1 )
b0 +
b11 *
1%
#2520
b11111100 '
0%
#2525
b0 !
b0 )
b10 "
b10 (
b1 +
b0 *
1%
#2530
b11111101 '
0%
#2535
b1 "
b1 (
b10 +
b1 *
1%
#2540
b11111110 '
0%
#2545
b10 !
b10 )
b0 "
b0 (
b11 +
b10 *
1%
#2550
b11111111 '
0%
#2555
b1 !
b1 )
b0 +
b11 *
1%
#2560
b100000000 '
0%
#2565
b0 !
b0 )
b10 "
b10 (
b1 +
b0 *
1%
#2570
b100000001 '
0%
#2575
b1 "
b1 (
b10 +
b1 *
1%
#2580
b100000010 '
0%
#2585
b10 !
b10 )
b0 "
b0 (
b11 +
b10 *
1%
#2590
b100000011 '
0%
#2595
b1 !
b1 )
b0 +
b11 *
1%
#2600
b100000100 '
0%
#2605
b0 !
b0 )
b10 "
b10 (
b1 +
b0 *
1%
#2610
b100000101 '
0%
#2615
b1 "
b1 (
b10 +
b1 *
1%
#2620
b100000110 '
0%
#2625
b10 !
b10 )
b0 "
b0 (
b11 +
b10 *
1%
#2630
b100000111 '
0%
#2635
b1 !
b1 )
b0 +
b11 *
1%
#2640
b100001000 '
0%
#2645
b0 !
b0 )
b10 "
b10 (
b1 +
b0 *
1%
#2650
b100001001 '
0%
#2655
b1 "
b1 (
b10 +
b1 *
1%
#2660
b100001010 '
0%
#2665
b10 !
b10 )
b0 "
b0 (
b11 +
b10 *
1%
#2670
b100001011 '
0%
#2675
b1 !
b1 )
b0 +
b11 *
1%
#2680
b100001100 '
0%
#2685
b0 !
b0 )
b10 "
b10 (
b1 +
b0 *
1%
#2690
b100001101 '
0%
#2695
b1 "
b1 (
b10 +
b1 *
1%
#2700
b100001110 '
0%
#2705
b10 !
b10 )
b0 "
b0 (
b11 +
b10 *
1%
#2710
b100001111 '
0%
#2715
b1 !
b1 )
b0 +
b11 *
1%
#2720
b100010000 '
0%
#2725
b0 !
b0 )
b10 "
b10 (
b1 +
b0 *
1%
#2730
b100010001 '
0%
#2735
b1 "
b1 (
b10 +
b1 *
1%
#2740
b100010010 '
0%
#2745
b10 !
b10 )
b0 "
b0 (
b11 +
b10 *
1%
#2750
b100010011 '
0%
#2755
b1 !
b1 )
b0 +
b11 *
1%
#2760
b100010100 '
0%
#2765
b0 !
b0 )
b10 "
b10 (
b1 +
b0 *
1%
#2770
b100010101 '
0%
#2775
b1 "
b1 (
b10 +
b1 *
1%
#2780
b100010110 '
0%
#2785
b10 !
b10 )
b0 "
b0 (
b11 +
b10 *
1%
#2790
b100010111 '
0%
#2795
b1 !
b1 )
b0 +
b11 *
1%
#2800
b100011000 '
0%
#2805
b0 !
b0 )
b10 "
b10 (
b1 +
b0 *
1%
#2810
b100011001 '
0%
#2815
b1 "
b1 (
b10 +
b1 *
1%
#2820
b100011010 '
0%
#2825
b10 !
b10 )
b0 "
b0 (
b11 +
b10 *
1%
#2830
b100011011 '
0%
#2835
b1 !
b1 )
b0 +
b11 *
1%
#2840
b100011100 '
0%
#2845
b0 !
b0 )
b10 "
b10 (
b1 +
b0 *
1%
#2850
b100011101 '
0%
#2855
b1 "
b1 (
b10 +
b1 *
1%
#2860
b100011110 '
0%
#2865
b10 !
b10 )
b0 "
b0 (
b11 +
b10 *
1%
#2870
b100011111 '
0%
#2875
b1 !
b1 )
b0 +
b11 *
1%
#2880
b100100000 '
0%
#2885
b0 !
b0 )
b10 "
b10 (
b1 +
b0 *
1%
#2890
b100100001 '
0%
#2895
b1 "
b1 (
b10 +
b1 *
1%
#2900
b100100010 '
0%
#2905
b10 !
b10 )
b0 "
b0 (
b11 +
b10 *
1%
#2910
b100100011 '
0%
#2915
b1 !
b1 )
b0 +
b11 *
1%
#2920
b100100100 '
0%
#2925
b0 !
b0 )
b10 "
b10 (
b1 +
b0 *
1%
#2930
b100100101 '
0%
#2935
b1 "
b1 (
b10 +
b1 *
1%
#2940
b100100110 '
0%
#2945
b10 !
b10 )
b0 "
b0 (
b11 +
b10 *
1%
#2950
b100100111 '
0%
#2955
b1 !
b1 )
b0 +
b11 *
1%
#2960
b100101000 '
0%
#2965
b0 !
b0 )
b10 "
b10 (
b1 +
b0 *
1%
#2970
b100101001 '
0%
#2975
b1 "
b1 (
b10 +
b1 *
1%
#2980
b100101010 '
0%
#2985
b10 !
b10 )
b0 "
b0 (
b11 +
b10 *
1%
#2990
b100101011 '
0%
#2995
b1 !
b1 )
b0 +
b11 *
1%
#3000
b100101100 '
0%
#3005
b0 !
b0 )
b10 "
b10 (
b1 +
b0 *
1%
#3010
b100101101 '
0%
#3015
b1 "
b1 (
b10 +
b1 *
1%
#3020
b100101110 '
0%
#3025
b10 !
b10 )
b0 "
b0 (
b11 +
b10 *
1%
#3030
b100101111 '
0%
#3035
b1 !
b1 )
b0 +
b11 *
1%
#3040
b100110000 '
0%
#3045
b0 !
b0 )
b10 "
b10 (
b1 +
b0 *
1%
#3050
b100110001 '
0%
#3055
b1 "
b1 (
b10 +
b1 *
1%
#3060
b100110010 '
0%
#3065
b10 !
b10 )
b0 "
b0 (
b11 +
b10 *
1%
#3070
b100110011 '
0%
#3075
b1 !
b1 )
b0 +
b11 *
1%
#3080
b100110100 '
0%
#3085
b0 !
b0 )
b10 "
b10 (
b1 +
b0 *
1%
#3090
b100110101 '
0%
#3095
b1 "
b1 (
b10 +
b1 *
1%
#3100
b100110110 '
0%
#3105
b10 !
b10 )
b0 "
b0 (
b11 +
b10 *
1%
#3110
b100110111 '
0%
#3115
b1 !
b1 )
b0 +
b11 *
1%
#3120
b100111000 '
0%
#3125
b0 !
b0 )
b10 "
b10 (
b1 +
b0 *
1%
#3130
b100111001 '
0%
#3135
b1 "
b1 (
b10 +
b1 *
1%
#3140
b100111010 '
0%
#3145
b10 !
b10 )
b0 "
b0 (
b11 +
b10 *
1%
#3150
b100111011 '
0%
#3155
b1 !
b1 )
b0 +
b11 *
1%
#3160
b100111100 '
0%
#3165
b0 !
b0 )
b10 "
b10 (
b1 +
b0 *
1%
#3170
b100111101 '
0%
#3175
b1 "
b1 (
b10 +
b1 *
1%
#3180
b100111110 '
0%
#3185
b10 !
b10 )
b0 "
b0 (
b11 +
b10 *
1%
#3190
b100111111 '
0%
#3195
b1 !
b1 )
b0 +
b11 *
1%
#3200
b101000000 '
0%
#3205
b0 !
b0 )
b10 "
b10 (
b1 +
b0 *
1%
#3210
b101000001 '
0%
#3215
b1 "
b1 (
b10 +
b1 *
1%
#3220
b101000010 '
0%
#3225
b10 !
b10 )
b0 "
b0 (
b11 +
b10 *
1%
#3230
b101000011 '
0%
#3235
b1 !
b1 )
b0 +
b11 *
1%
#3240
b101000100 '
0%
